<svg xmlns="http://www.w3.org/2000/svg" viewBox="0 0 18.144 18.146">
  <defs>
    <style>
      .cls-1 {
        fill: none;
        stroke: #a1a1a1;
        stroke-linejoin: round;
        stroke-miterlimit: 10;
      }
    </style>
  </defs>
  <g id="Group_34339" data-name="Group 34339" transform="translate(-1.356 -0.497)">
    <path id="Path_46983" data-name="Path 46983" class="cls-1" d="M9.572,18.142h8.572a7.541,7.541,0,0,0-.739-3.015c-.562-1.123-2.778-1.773-5.764-2.9V9.984a3.284,3.284,0,0,0,.916-2.335c.384,0,.739-1.478,0-1.862,0-.207,1-2.1.739-3.34C12.912.585,7.71.585,7.325,2.063c-2.246,0-.739,3.429-.739,3.724-.739.384-.384,1.862,0,1.862A2.826,2.826,0,0,0,7.5,9.837V12.2c-2.985,1.123-5.2,1.773-5.764,2.9A7.727,7.727,0,0,0,1,18.142Z" transform="translate(0.856 0)"/>
  </g>
</svg>
