<svg xmlns="http://www.w3.org/2000/svg" width="18.02" height="18.02" viewBox="0 0 18.02 18.02">
  <g id="Group_36825" data-name="Group 36825" transform="translate(-119.5 -662.5)">
    <rect id="Rectangle_25563" data-name="Rectangle 25563" width="12.325" height="14.672" transform="translate(122.348 665.348)" stroke-width="1" stroke="#4d4d4d" stroke-linecap="round" stroke-linejoin="round" fill="none"/>
    <rect id="Rectangle_25564" data-name="Rectangle 25564" width="6.456" height="2.348" transform="translate(125.282 663)" stroke-width="1" stroke="#4d4d4d" stroke-linecap="round" stroke-linejoin="round" fill="none"/>
    <line id="Line_5012" data-name="Line 5012" x2="17.02" transform="translate(120 665.348)" fill="none" stroke="#4d4d4d" stroke-linecap="round" stroke-linejoin="round" stroke-width="1"/>
    <line id="Line_5013" data-name="Line 5013" y2="8.217" transform="translate(125.282 668.576)" fill="none" stroke="#4d4d4d" stroke-linecap="round" stroke-linejoin="round" stroke-width="1"/>
    <line id="Line_5014" data-name="Line 5014" y2="8.217" transform="translate(128.51 668.576)" fill="none" stroke="#4d4d4d" stroke-linecap="round" stroke-linejoin="round" stroke-width="1"/>
    <line id="Line_5015" data-name="Line 5015" y2="8.217" transform="translate(131.738 668.576)" fill="none" stroke="#4d4d4d" stroke-linecap="round" stroke-linejoin="round" stroke-width="1"/>
  </g>
</svg>
