<svg xmlns="http://www.w3.org/2000/svg" xmlns:xlink="http://www.w3.org/1999/xlink" viewBox="0 0 40.46 57.93"><defs>
  <style>.cls-1,.cls-4{fill:none;}.cls-2{fill:#006837;}.cls-3{fill:#fff;}.cls-4{stroke:#4d4e4e;stroke-miterlimit:10;stroke-width:0.23px;}
  .cls-5{clip-path:url(#clip-path);}.cls-6{fill:#f2cab1;}.cls-7{fill:#fde0cf;}.cls-8{fill:#dca694;}.cls-9{fill:#7c695f;}
  .cls-10{fill:#4d4642;}.cls-11{fill:#6c6866;}.cls-12{fill:#787877;}
.cls-13{fill:#565454;}.cls-14{fill:#5b5e55;}</style><clipPath id="clip-path">
  <circle class="cls-1" cx="20.54" cy="19.39" r="17.46"/></clipPath></defs><title>Manus 3</title>
<g id="Layer_2" data-name="Layer 2"><g id="Layer_1-2" data-name="Layer 1">
  <path class="cls-2" d="M40.46,20c0,11-20.23,38-20.23,38S0,31,0,20A20.1,20.1,0,0,1,20.23,0,20.1,20.1,0,0,1,40.46,20Z"/>
<circle class="cls-3" cx="20.54" cy="19.39" r="17.46"/>
<circle class="cls-4" cx="20.54" cy="19.39" r="17.46"/>
<g class="cls-5">
  <path class="cls-6" d="M17,31c-.13-1.37-.51-2.74-.65-4.14s0-2.64-.22-3.9a15,15,0,0,0-.34-1.75c-.27-.89-.15-.29-.78-.85a6.12,6.12,0,0,1-1.35-3.46c-.28-3.24.94-7.26,4.08-8.83,3-1.49,6.46-1.16,8.18,1.91a9.4,9.4,0,0,1,1.43,3.82,37,37,0,0,1-.15,3.75,5.54,5.54,0,0,1-.08,1.75c-.26.61-.87.48-1.12.87s-.11,1.37-.16,1.84a19.52,19.52,0,0,0-.16,2.07c0,2.11.93,4.81-.22,6.7a4.57,4.57,0,0,1-3.92,2.06c-.64,0-1.3.16-1.91.16s-1.1-.46-1.51-.24Z"/>
  <path class="cls-7" d="M17.62,10.94a16.08,16.08,0,0,0-.4,7.24c.31,2.23.36,4.77,1.66,6.68-1.49-.46-.93,4.8-.66,5.51-2,.67-2-5.28-2-6.45,0-2.56-.85-4.88-1.1-7.41-.2-2-.17-4.22,1.49-5.57Z"/>
  <path class="cls-7" d="M23.19,10.62c1.58,1.8,1.87,4.64,1.76,7-.11,2.15-.11,4.86-1.11,6.74,1.57.76.8,4,.88,5.35,1.29-.63,1.07-2.3.94-3.49a25.19,25.19,0,0,1,.14-4c.16-2.61.21-5.21.34-7.88a6.16,6.16,0,0,0-.72-4.06Z"/>
  <path class="cls-8" d="M19.55,18.33a0,0,0,0,0-.05,0,.78.78,0,0,0-.3.52.64.64,0,0,0-.06.16.16.16,0,0,0,0,.12.64.64,0,0,0,.37.55,4,4,0,0,0,1.13.52c.79.26,2-.17,2.1-1.06a.7.7,0,0,0,0-.32.08.08,0,0,0,0,0,.71.71,0,0,0-.39-.73s-.06,0-.05,0a1.15,1.15,0,0,1,.08.28.08.08,0,0,0,0,.07.38.38,0,0,1-.09.3.17.17,0,0,0-.06.06,1.57,1.57,0,0,1-1.5.52c-.25-.06-.48-.14-.74-.19C19.51,19,19.52,18.7,19.55,18.33Z"/>
  <path class="cls-8" d="M15.21,19.86s0,0-.05,0a.61.61,0,0,1-.23,0c-.13,0-.45-.12-.45-.3s0,0,0,0a.55.55,0,0,0,.39.64c.2.09.74.2.72-.19A.19.19,0,0,0,15.21,19.86Zm0,0Z"/>
  <path class="cls-8" d="M26.85,19.21c-.08.09-.09.2-.22.14l-.2-.1c-.05,0-.17-.1-.19-.15s-.11-.05-.1,0a.81.81,0,0,0,.07.35.59.59,0,0,0,.32.28.46.46,0,0,0,.63-.4A.18.18,0,0,0,26.85,19.21Z"/>
  <path class="cls-8" d="M26.17,18.14a.09.09,0,0,0,.16.06s0,0,.08,0a.34.34,0,0,0,.2,0,.49.49,0,0,0,.33-.25c.14-.23,0-.55-.1-.78a.23.23,0,0,0-.35-.08.21.21,0,0,0-.31.17,1,1,0,0,0,.14.6h0C26.18,18,26.18,18,26.17,18.14Z"/>
  <path class="cls-8" d="M15,18.93a.36.36,0,0,0,.32-.22.17.17,0,0,0-.11-.25.18.18,0,0,0,.05-.12.36.36,0,0,0-.07-.18.45.45,0,0,0,0-.11.2.2,0,0,0-.34-.09.63.63,0,0,0-.15.78A.34.34,0,0,0,15,18.93Z"/>
  <path class="cls-8" d="M17.31,13.31a3.64,3.64,0,0,0,2.7.34.16.16,0,0,0,0-.32A5.74,5.74,0,0,1,17.68,13c-.32-.15-.18-.51-.45-.83.06-.06-.57,0-.5,0a.19.19,0,0,0-.18-.31c-.4.11-.68.58-.85.92a2,2,0,0,0-.22,1.28s.06,0,.06,0A3,3,0,0,1,16,13a2,2,0,0,1,.26-.37A2.56,2.56,0,0,0,17.31,13.31Z"/><path class="cls-8" d="M25.27,29c-.6.27-1.17.55-1.76.8l-.35.1a7.86,7.86,0,0,1-1.74.19c-.12-.05-.25-.09-.35-.14a2.88,2.88,0,0,1-.38-.22h0l-.09-.13c-.07-.11-.14-.22-.22-.33-.11-.37-.24-.74-.32-1.12a4.28,4.28,0,0,1,0-1.07,1.55,1.55,0,0,1,.08-.23,2.18,2.18,0,0,1,.46-.28h.05l.18,0a2.76,2.76,0,0,0,1.11-.08,3.19,3.19,0,0,1,.42.05c.42.09.31.84.27,1.12a6.11,6.11,0,0,0-.12,1.71s.05.05.06,0a8.09,8.09,0,0,0,.68-2.16c.09-.25.14-.5.21-.77a3.72,3.72,0,0,1,.38-.92A20.86,20.86,0,0,0,25,23.64c0-.09.27-.72.37-.92s-.12-.49-.34-.34c-.54.39-.94.95-1.48,1.35l-.19.13a2.06,2.06,0,0,1-.47.23,5.79,5.79,0,0,1-2.37.35,5.8,5.8,0,0,1-3.73-1.88s0,0-.07.06c-.16.31.14.68.16.71.32.47,1,1.52,1.11,1.69a13.82,13.82,0,0,1,.6,1.67c.16.57.26,1.55.76,2a5.12,5.12,0,0,0,.4.55.18.18,0,0,0,.05.07l0,.05c0,.06.2.31.19.37s-.2.14-.36.16h-.09a14.52,14.52,0,0,1-1.72-.34,0,0,0,0,0,0,.05,2.31,2.31,0,0,0,.77.57,5.28,5.28,0,0,0,3.33.74,6.86,6.86,0,0,0,3.72-1.48C25.83,29.2,25.53,28.89,25.27,29Zm-2.5-2.89v0h0Z"/><path class="cls-7" d="M21.21,27.3c.17-.33-.35-.62-.56-.29a1.77,1.77,0,0,0,.9,2.4s.08,0,.05-.06A2.08,2.08,0,0,1,21.21,27.3Z"/>
  <path class="cls-7" d="M20.51,19a1.42,1.42,0,0,0,.71,0c.2,0,.28-.32.08-.38a.15.15,0,0,0-.1-.19c-.06,0-.1-.18-.11-.23A1.33,1.33,0,0,1,21,18a9,9,0,0,0-.37-3,0,0,0,0,0-.05,0,19.72,19.72,0,0,1,.08,3.35s0,0,0,.05a.67.67,0,0,0-.07.17C20.44,18.62,20.34,18.87,20.51,19Z"/>
  <path class="cls-7" d="M22.06,23.56s0,0,0,0a.19.19,0,0,0-.13-.23,1.92,1.92,0,0,0-.72,0,1.37,1.37,0,0,0-.35.08l-.15,0c-.33,0-.41.54-.07.59h0l.09.06a1.4,1.4,0,0,0,.61.06,1.93,1.93,0,0,0,.6-.1.27.27,0,0,0,.1-.34Z"/>
  <path class="cls-9" d="M11.88,14.8a1.38,1.38,0,0,0,1.17-1.18,5.82,5.82,0,0,1,0-.93,4.53,4.53,0,0,1,.32-.85c-.32.38-.76,1.05-.59,1.54a2.68,2.68,0,0,1-.07-2.08c.21-.56.51-1.49,1-1.79a1.92,1.92,0,0,0-1.39,1.34,3.15,3.15,0,0,1,.55-1.17,7.17,7.17,0,0,1,.9-.62c-.5,0-.78.51-1.16.64.39-.32.65-.79,1-1.09a2.88,2.88,0,0,1,1.06-.51c-.43-.27-.88.06-1.23.27A3.43,3.43,0,0,1,15,7.24,4.23,4.23,0,0,1,17,6.85c-.36-.25-.82-.07-1.22-.1.73-.43,2.11-1,2.79-.22a1.84,1.84,0,0,0-.1-.52h0a.79.79,0,0,1,.34.38,1.26,1.26,0,0,1,.08-.61,3.48,3.48,0,0,0,.5.52,1.3,1.3,0,0,1,.77-1.06c-.17.26-.43.53-.38.87a1.63,1.63,0,0,1,1.07-.85c.29-.06,1.13-.2,1.24.2a1.11,1.11,0,0,0-.68.38,3.05,3.05,0,0,1,2.85.36c.37.3.53.71,1,.93A4.4,4.4,0,0,1,26.41,8a3,3,0,0,1,.64.8c.17.35.12.8.28,1.11s.44.45.6.68a2.56,2.56,0,0,1,.29,1.09c-.09-.15-.17-.3-.27-.45a23.74,23.74,0,0,1,.25,2.58A6.23,6.23,0,0,1,28,15.21c-.14.44-.27.91.42.88-.15.18-.5.11-.64,0,.07.54.26.69.84.56-.16.36-.52.34-.81.16-.08.5.21.69.6.87a1.69,1.69,0,0,1-1.09.2c-.48-.1-.36-.42-.59-.72a1,1,0,0,0,.1.72c-.21,0-.36-.24-.49-.39-.11.17-.1.39-.19.53a11.25,11.25,0,0,1-.05-2.9c0-.82.22-1.95-.34-2.61a2.58,2.58,0,0,1-.07,1.43,1.9,1.9,0,0,0-.25-1.36,2.55,2.55,0,0,1,.08,1.3,1.63,1.63,0,0,0-.42-.85,4.78,4.78,0,0,1,0,1.46c-.21-.51-.31-1.1-.49-1.64.31.47.08,1.16.07,1.64a2.68,2.68,0,0,0-.34-1.17,3.63,3.63,0,0,0-.81-.71s0,0,0,0a5.8,5.8,0,0,0,.59.79,5,5,0,0,1-1.44-.56,10.68,10.68,0,0,1-1.2-1,2.77,2.77,0,0,0,1.08,1.41,16.44,16.44,0,0,1-1.64-.65c.07.47.66.69,1,.89a10.13,10.13,0,0,1-2.09-.58,2.8,2.8,0,0,0,1.72,1.3,7.33,7.33,0,0,1-2.81-.71,4.48,4.48,0,0,1-1.36-.6c-.18-.14-.39-.27-.56-.42s-.35-.51-.45-.52,0,0,0,0a5.18,5.18,0,0,0-1,2.83c-.06.59-.07,1.13-.1,1.73a9.19,9.19,0,0,1,0,1.48,1.07,1.07,0,0,1-1,.63.79.79,0,0,0,.25-.45,1.35,1.35,0,0,1-1.24.28.76.76,0,0,0,.32-.3,1.48,1.48,0,0,1-1,.12c.2-.09.44-.15.5-.4-.43.34-1.25-.16-1.36-.62a.7.7,0,0,0,.9.09c-.44.15-.86-.33-1-.71a.68.68,0,0,0,.82,0c-.55-.2-1.08-.12-1.22-.83.53,1.11,1.58-.45,1.79-1a1.23,1.23,0,0,1-1.27.34,1.24,1.24,0,0,0,1.08-.58,2.28,2.28,0,0,1-.78.3Z"/><path class="cls-9" d="M13.23,20.82c.39.54,1.26.14,1.47-.46.2.27.64.14.87,0,.16.77.32,1.57.46,2.35.07.35.23.83,0,1.15a1,1,0,0,1-.9.24.92.92,0,0,0,.59-.34,1.76,1.76,0,0,1-1.31.19c.5.18,1-.52,1.1-.94a1.29,1.29,0,0,1-1.18.56c.35-.08,1-.45,1.07-.92a1.36,1.36,0,0,1-1.13.68c.74-.08.87-1.17.89-1.68a1.52,1.52,0,0,1-1.51.64,1.1,1.1,0,0,0,1-.69,1.45,1.45,0,0,1-1.27.35c.41.19.83-.3,1-.62a.92.92,0,0,1-1.14-.13.72.72,0,0,0,.82-.05.61.61,0,0,1-.57,0Z"/><path class="cls-9" d="M26.33,20c-.12.34.52.51.76.52a.87.87,0,0,0,.77-.41,1.07,1.07,0,0,1-1.07.62,1.06,1.06,0,0,0,.95,0c-.21.16-.8.4-1,.23a.63.63,0,0,0,1,.19c-.3.28-.67.55-1.09.33a1,1,0,0,0,1,.35,1,1,0,0,1-1.2-.07,1.74,1.74,0,0,0,.79.68.92.92,0,0,1-.79-.1s0,0,0,0a1.23,1.23,0,0,0,.75.36,1.06,1.06,0,0,1-.82,0,.44.44,0,0,0,.25.38A.77.77,0,0,1,26,23a5.92,5.92,0,0,1,0-1.52c0-.35-.14-1.13,0-1.38Z"/><path class="cls-10" d="M14.24,21.88a3.62,3.62,0,0,0,.54-.49,1.25,1.25,0,0,0,.3-.42v0a2,2,0,0,0,.1-.21.09.09,0,0,0-.09-.11h0a.06.06,0,0,0,0,0,.08.08,0,0,0-.09-.09h0a.08.08,0,0,0-.09.09,1.34,1.34,0,0,1-.22.56.06.06,0,0,0,0,.07c-.38.42-.85,1-1.3.58,0-.05-.1,0-.07.06C13.55,22.19,13.92,22.09,14.24,21.88Z"/><path class="cls-10" d="M15.67,22.72l0-.12a1.42,1.42,0,0,1-.19.86,0,0,0,1,0,0,0,1.41,1.41,0,0,0,.33-.86,3.29,3.29,0,0,0-.08-.93.61.61,0,0,0-.06-.43h0a.07.07,0,0,0,0-.05.08.08,0,0,0-.1-.06c0-.12,0-.25,0-.38a.07.07,0,0,0-.11-.05v-.09a.09.09,0,0,0-.18,0,3.63,3.63,0,0,1,0,.57,2.62,2.62,0,0,1-.61.76c-.26.17-.85.43-1.15.26,0,0-.07,0,0,.06.29.29.84.06,1.15-.09a1.55,1.55,0,0,0,.83-1c0,.14.05.27.06.41a2.14,2.14,0,0,1-.1.71.8.8,0,0,1-.08.16,1.54,1.54,0,0,1-1.12.83s0,0,0,0a1.19,1.19,0,0,0,1.22-.63l.12-.19h0a1.72,1.72,0,0,1-.72,1.25s0,.07,0,.05A1.6,1.6,0,0,0,15.67,22.72Z"/><path class="cls-10" d="M16,22.77a1.82,1.82,0,0,0-.08.66.82.82,0,0,1-.89.69s0,.05,0,.05a1,1,0,0,0,.93-.33c.21-.27.15-.72.17-1A.07.07,0,0,0,16,22.77Z"/><path class="cls-10" d="M27.56,21.5a.66.66,0,0,1-.94,0,.74.74,0,0,1-.27-.35.37.37,0,0,0,0-.11l.11.06a1.13,1.13,0,0,0,.9-.07s0,0,0,0a1.22,1.22,0,0,1-.73,0,.32.32,0,0,1-.19-.11.34.34,0,0,0,0-.1,1.69,1.69,0,0,0,1-.19s0,0,0,0a1.19,1.19,0,0,1-1.12-.07,1.22,1.22,0,0,1,0-.17.31.31,0,0,0-.07-.18.09.09,0,0,0-.14.05.09.09,0,0,0-.11.11,1.47,1.47,0,0,0,.07.17,1.11,1.11,0,0,0,0,.17l0,0a.51.51,0,0,0-.05.34.07.07,0,0,0-.1,0,.5.5,0,0,0,.06.41.62.62,0,0,0,.08.46s0,.08,0,.12v0c0-.06-.14-.08-.15,0a.72.72,0,0,0,.47.75.9.9,0,0,0,1-.28s0,0,0,0a1,1,0,0,1-.84.15.5.5,0,0,1-.36-.28l0-.21,0,0a.89.89,0,0,0,1,.18s0,0,0,0a1.33,1.33,0,0,1-.87-.25.77.77,0,0,1-.17-.19V21.8l.13.11a.87.87,0,0,0,1,.12s0,0,0,0a1.05,1.05,0,0,1-.89-.28,1.12,1.12,0,0,1-.18-.2v-.07a1.51,1.51,0,0,0,.23.21.68.68,0,0,0,1-.16Zm-1.26-.56v0Z"/><path class="cls-10" d="M15.35,16.8a1.54,1.54,0,0,0,0-.37.1.1,0,0,0-.1-.08l0-.18s-.06,0-.07,0a3.33,3.33,0,0,1-1.48,2.06s0,0,0,0A2,2,0,0,0,15.07,17a2.42,2.42,0,0,1-.22.62,1.94,1.94,0,0,1-1,.84s0,0,0,0a1.85,1.85,0,0,0,1.14-.64,2.06,2.06,0,0,0,.27-.51,2.58,2.58,0,0,1,0,.48c-.09.42-.45.6-.77.83,0,0,0,.05,0,0A1.42,1.42,0,0,0,15.3,18a2,2,0,0,0,.11-1.17A.06.06,0,0,0,15.35,16.8Z"/><path class="cls-10" d="M14.7,16.55h0l.07-.18c.11-.33.18-.67.31-1,0,0,0,0,0,0a3.72,3.72,0,0,0-.19.34,3,3,0,0,0-.6.86,1.93,1.93,0,0,1-.31.33,1.4,1.4,0,0,1-1.35.2,1.7,1.7,0,0,0,1.15-.26,2,2,0,0,0,.58-.83l0-.07v0c.12-.3.22-.63.34-.92,0,0,0,0,0,0a3.9,3.9,0,0,0-.19.35,4.72,4.72,0,0,1-.61.73c-.23.23-.54.37-.77.6a.13.13,0,0,0,0,.06,1.56,1.56,0,0,1-1,.12,0,0,0,0,0,0,0,.53.53,0,0,0,.21.11s0,.08.06.09l.17,0a1.13,1.13,0,0,0,1.33.1,2.19,2.19,0,0,0,.42-.3,2.4,2.4,0,0,1-.63.55,1.78,1.78,0,0,1-1.34.16s0,0,0,0C13.1,18.2,14.49,17.45,14.7,16.55Z"/><path class="cls-10" d="M12.89,16.51a1.65,1.65,0,0,0,.82-.64,1.94,1.94,0,0,0,.36-.49,3.63,3.63,0,0,0,.78-2h0c-.12.36-.25.71-.39,1.06a.61.61,0,0,1,0,.12c.14-.55.17-1.12.32-1.67h0a5.39,5.39,0,0,0-.22.64h0A10.08,10.08,0,0,1,14,14.93a5.22,5.22,0,0,1-.61.94v0a1.83,1.83,0,0,1-1.35.5s0,0,0,0l.08,0a.73.73,0,0,1-.43-.17s0,0,0,0C11.8,16.72,12.54,16.62,12.89,16.51Z"/><path class="cls-10" d="M12,16.16c1.41-.08,1.85-1.81,2.07-2.92h0a6.58,6.58,0,0,1-.59,1.68,2.53,2.53,0,0,1-.57.73,2.67,2.67,0,0,1-.91.45A0,0,0,0,0,12,16.16Z"/><path class="cls-10" d="M12.09,14.88c.23.06.52-.17.69-.31a1.25,1.25,0,0,0,.43-.73s0,0,0,0a1.19,1.19,0,0,1-.46.6,1.9,1.9,0,0,1-.33.22,1.73,1.73,0,0,0-.31.14A0,0,0,0,0,12.09,14.88Z"/><path class="cls-10" d="M27.88,17.65c-.38,0-.71,0-.93-.36l-.06-.12v0a1.73,1.73,0,0,0-.1-.45v0l0-.33a2.11,2.11,0,0,1,0-.26,4.11,4.11,0,0,0,0-1.31h0c.06.59-.18,1.16-.17,1.72-.06.74.5,1.69,1.32,1.25C27.93,17.71,27.92,17.65,27.88,17.65Z"/><path class="cls-10" d="M26.6,16.86a3.06,3.06,0,0,1,0-2.15,0,0,0,0,0,0,0,2.3,2.3,0,0,0-.06,2.19S26.62,16.9,26.6,16.86Z"/><path class="cls-10" d="M28.5,16.64a1,1,0,0,1-.71.15c-.3-.06-.34-.27-.44-.51l0,0v-.07s0,0,0,0a.5.5,0,0,0,.05-.13c.2.32.65.5.92.15,0,0,0,0,0,0a.65.65,0,0,1-.7-.16.1.1,0,0,0,.09-.15c-.28-.44.07-1,.11-1.48a2.44,2.44,0,0,0-.53-1.51s0,0,0,0,0,.07,0,.11a2.49,2.49,0,0,0-.51-.56A3.31,3.31,0,0,0,26,12s0,0,0,0a6.42,6.42,0,0,0,.6.42,2.7,2.7,0,0,1,.61.65,2.14,2.14,0,0,1,.34,1v0a1.48,1.48,0,0,0-.45-1s0,0,0,0a1,1,0,0,1,.19.41,2.13,2.13,0,0,0-.87-1.05s0,0,0,0a3.28,3.28,0,0,1,.78,1.35,7.19,7.19,0,0,1,.12,1.6,0,0,0,0,0,0,0v.07h0l0,0v-.26a2.66,2.66,0,0,0-.29-1.24h0A4.72,4.72,0,0,1,27,15.56a3.57,3.57,0,0,0,.2,1.21c0,.08.16.07.16,0h0a.8.8,0,0,0,.35.22.87.87,0,0,0,.82-.31S28.51,16.63,28.5,16.64Z"/><path class="cls-10" d="M12.54,14a1.17,1.17,0,0,0,.3-.61,1.16,1.16,0,0,1-.09.56s0,0,0,0a2.11,2.11,0,0,0,.28-1,2.1,2.1,0,0,1,.19-.6,4.48,4.48,0,0,0,.29-.58.05.05,0,0,0,0-.07c.15-.23.31-.45.46-.69,0,0,0,0,0,0a4.84,4.84,0,0,0-1.08,1.67,1.52,1.52,0,0,1,0-.21,3.79,3.79,0,0,1,.38-.93A4.22,4.22,0,0,1,14.4,10s0,0,0,0a3.53,3.53,0,0,0-1.25,1.48c-.07.13-.14.26-.2.4a3.57,3.57,0,0,1,.21-.6,3.94,3.94,0,0,1,1-1.34s0,0,0,0a3.42,3.42,0,0,0-1.51,2.93.06.06,0,0,0,.05.06c0,.13,0,.26,0,.38a1.46,1.46,0,0,1-.16.74S12.53,14,12.54,14Z"/><path class="cls-10" d="M14.43,11.21s0,0,0,0a2.87,2.87,0,0,0-.86,1.24,3.47,3.47,0,0,0-.1.71,7.54,7.54,0,0,1-.16.93s0,0,0,0a1.49,1.49,0,0,1-.18.3,2.24,2.24,0,0,1-1,.75s0,.09,0,.09a1.33,1.33,0,0,0,1.11-.77v0c-.12.35-.39.63-.51,1,0,0,.05.09.09,0a2.26,2.26,0,0,0,.5-.79c.15-.36.13-.75.27-1.11,0,0,0,0,0,0v0a7.78,7.78,0,0,0,.07-.82A3.08,3.08,0,0,1,14.43,11.21Z"/><path class="cls-10" d="M14,14.41c.42-.92.31-2.07,1-2.85,0,0,0,0,0,0-.84.7-.9,1.84-1.09,2.84A0,0,0,0,0,14,14.41Z"/><path class="cls-10" d="M14.78,12.79a4.8,4.8,0,0,1,.83-1.66s0,0,0,0a3.06,3.06,0,0,0-.9,1.65C14.68,12.82,14.76,12.84,14.78,12.79Z"/><path class="cls-10" d="M14.53,11s0,0,0,0A4.85,4.85,0,0,1,16.36,10s0-.07,0-.06A3.22,3.22,0,0,0,14.53,11Z"/><path class="cls-10" d="M12.7,10.35a2.65,2.65,0,0,1,1.19-.77c.44-.14.92-.11,1.34-.27a.08.08,0,0,0,0-.16,2.25,2.25,0,0,0-2.56,1.17A0,0,0,0,0,12.7,10.35Z"/><path class="cls-10" d="M13.7,9.23c.27-.1.52-.27.79-.4a4,4,0,0,1,1.24-.25s0,0,0,0a2.24,2.24,0,0,0-1.12,0,2.17,2.17,0,0,0-1,.59C13.56,9.15,13.61,9.27,13.7,9.23Z"/><path class="cls-10" d="M20.13,14.05c-1-.67-2.54-1.8-1.67-3.2,0,0,0,0,0,0a1.64,1.64,0,0,0-.2,1.84,2.16,2.16,0,0,0,.33.53,5.66,5.66,0,0,1-.95-.7,1.61,1.61,0,0,1-.15-2.27s0,0,0,0A1.7,1.7,0,0,0,17,12.25l.06.1a1.14,1.14,0,0,1-.51-.72l0,0s0-.06,0,0h0a.9.9,0,0,1,.21-.54s0,0,0,0a.9.9,0,0,0-.42.75,3.37,3.37,0,0,0-.83,1.44,2.48,2.48,0,0,1,.09-.89,4.45,4.45,0,0,1,.53-1.15s0-.07-.06,0a5.8,5.8,0,0,0-.45.71l0,0a2.34,2.34,0,0,0-.39,1.55,5.26,5.26,0,0,1-.09,1c-.08.33-.17.66-.23,1h0c.12-.4.29-.77.4-1.16a.88.88,0,0,0,0,.17,2.85,2.85,0,0,0,0,1.05.06.06,0,0,0,.12,0c0-.29,0-.59,0-.89a7.79,7.79,0,0,1,.17-1.06,4.87,4.87,0,0,1,.76-1.63,1,1,0,0,0,.19.34,3.44,3.44,0,0,0,1.41,1,3.27,3.27,0,0,0,1.45.57,5.47,5.47,0,0,0,.74.31S20.16,14.07,20.13,14.05Zm-4.82-.36a1,1,0,0,0,0-.17l0,.05Z"/><path class="cls-10" d="M21.22,13.37c-.81-.28-3-.85-2.72-2,0,0,0,0,0,0a1.13,1.13,0,0,0,.5,1.42,2.89,2.89,0,0,0,2,1.44s0,0,0,0a3,3,0,0,1-1.11-.65,4.94,4.94,0,0,1-.35-.45,4.45,4.45,0,0,0,1.69.41A0,0,0,0,0,21.22,13.37Z"/><path class="cls-10" d="M21.17,13s0,0,0-.05a5.59,5.59,0,0,1-1.47-.87,1.14,1.14,0,0,1-.39-1.51h0C18.33,11.65,20.23,12.92,21.17,13Z"/><path class="cls-10" d="M20.84,12.5s.08,0,0-.06c-.5-.41-1.58-.79-1.24-1.63,0,0,0,0,0,0C19.24,11.65,20.2,12.19,20.84,12.5Z"/><path class="cls-10" d="M22.91,12.9a10.41,10.41,0,0,1-.94-.7,2.78,2.78,0,0,1-1-1.63s0,0,0,0a4,4,0,0,0,.21.91,2.62,2.62,0,0,0,.57.75,8.74,8.74,0,0,0,1,.77,3.54,3.54,0,0,0,1.11.37s.06,0,0-.07C23.58,13.1,23.22,13.08,22.91,12.9Z"/><path class="cls-10" d="M21.59,12.39c-.43-.23-1.4-.68-1.16-1.31h0c-.36.64.64,1.23,1.14,1.38C21.6,12.47,21.63,12.41,21.59,12.39Z"/><path class="cls-10" d="M21.78,11.64a1.85,1.85,0,0,1-.25-.76h0A1.45,1.45,0,0,0,22,12.06a10.15,10.15,0,0,0,1.8,1s.08,0,0-.06a5.81,5.81,0,0,0-1.33-.8A1.91,1.91,0,0,1,21.78,11.64Z"/><path class="cls-10" d="M23.74,11.82s0,0,0,0a5.37,5.37,0,0,1,.85.93A2.45,2.45,0,0,1,25,14a0,0,0,0,0,.08,0,1.61,1.61,0,0,0-.29-1.27A3.71,3.71,0,0,0,23.74,11.82Z"/><path class="cls-10" d="M24,12.3h0a1.48,1.48,0,0,1,.55,1.15,5.4,5.4,0,0,0,.07,1.07c0,.05.1.06.11,0a3.64,3.64,0,0,0-.05-1.23A1.3,1.3,0,0,0,24,12.3Z"/><path class="cls-10" d="M26.24,14.39s0,0,0,0,0,.11,0,.17a3.12,3.12,0,0,0-.16,1s0,.05.05.06c0,.24,0,.47,0,.71a1.92,1.92,0,0,0,.57,1.51.06.06,0,0,0,.08-.07,3,3,0,0,1-.47-1.69c0-.29,0-.57,0-.86a5.93,5.93,0,0,0,.2-1.24,3,3,0,0,0-.58-1.5s0,0,0,0a3.87,3.87,0,0,1,.41,1.59A1.43,1.43,0,0,1,26.24,14.39Z"/><path class="cls-10" d="M27.94,15.06a3,3,0,0,0,0-2,1.92,1.92,0,0,0-1.29-1.37s0,0,0,0a2.32,2.32,0,0,1,1.13,1.48A5.37,5.37,0,0,1,27.82,15C27.81,15.09,27.91,15.12,27.94,15.06Z"/><path class="cls-10" d="M26.2,11.05a2.11,2.11,0,0,1,.3.37s.1,0,.08,0c-.11-.32-.46-.44-.71-.63h0Z"/><path class="cls-10" d="M28.27,12.56a9.53,9.53,0,0,0-.37-1.26.07.07,0,0,0-.09,0h0a1.29,1.29,0,0,0-.06-.25,1.53,1.53,0,0,0-.45-.64s0,0,0,0a1.87,1.87,0,0,1,.34.76,2.53,2.53,0,0,1,0,.55.67.67,0,0,1-.08-.17c0-.14-.08-.28-.13-.42a2.53,2.53,0,0,0-.37-.55,2.45,2.45,0,0,0-.71-.43s0,0,0,0a2.89,2.89,0,0,1,.59.51,2.31,2.31,0,0,1,.38.66,3.37,3.37,0,0,0,.1.34l-.08-.05c-.13-.6-.71-.91-1.21-1.17,0,0,0,0,0,0a2.38,2.38,0,0,1,.62.52,2,2,0,0,1,.33.49s0,0,0,0h0l.12.22c0,.06.11,0,.14,0a2.29,2.29,0,0,1,.59.85,9.14,9.14,0,0,1,.18,1.38c0,.07.12.07.14,0a2.83,2.83,0,0,0-.13-1.38l0,.06C28.18,12.69,28.28,12.64,28.27,12.56Z"/><path class="cls-10" d="M26.31,8.9a2.84,2.84,0,0,0-1.47-.27h0a3.22,3.22,0,0,1,1.38.42,2,2,0,0,1,.46.36,3,3,0,0,0-.36-.1,3,3,0,0,0-1.37,0,3.28,3.28,0,0,0-.82.2s0,0,0,0a2.79,2.79,0,0,1,1.22-.05,6.69,6.69,0,0,1,1,.2,3.81,3.81,0,0,1,.89.42,2.74,2.74,0,0,1,.66.74,2.17,2.17,0,0,1,.43,1s0,0,0,0a2.2,2.2,0,0,0-.88-1.75l-.1-.08v0h0a.08.08,0,0,0,0-.07A2.36,2.36,0,0,0,26.31,8.9Zm.16.66-.08,0a2.26,2.26,0,0,1,.43.17.41.41,0,0,1,.11.07,3.29,3.29,0,0,0-.39-.17Z"/><path class="cls-10" d="M22.74,7.72s0,0,0,0A3,3,0,0,1,25,7.5a3.15,3.15,0,0,1,.91.36l-.24-.09A2.32,2.32,0,0,0,23.57,8s0,.06,0,0a2.56,2.56,0,0,1,1.94-.12l.06,0s0,0,0,0a1,1,0,0,1,.38.28A5.13,5.13,0,0,0,25,8.09a1.74,1.74,0,0,0-1.1.18s0,0,0,0a3.42,3.42,0,0,1,1.87.12,1.77,1.77,0,0,1,.38.15.31.31,0,0,0,.14.09h0l.19.14a3.45,3.45,0,0,1,.5.64.07.07,0,0,0,.1,0A.81.81,0,0,0,27,9a1,1,0,0,0-.23-.47.08.08,0,0,0,0-.05c0-.31-.37-.54-.61-.7a3.88,3.88,0,0,0-1.12-.5A2.79,2.79,0,0,0,22.74,7.72Zm3.67.72.05,0-.13-.07-.11-.13Z"/><path class="cls-10" d="M21.18,8.53a3.82,3.82,0,0,1,2.58-.88,3.91,3.91,0,0,1,2.43.85c.1.08.25-.07.18-.18a2.16,2.16,0,0,0-.53-.47A3.44,3.44,0,0,0,24.09,7a3,3,0,0,0-2.2.41,0,0,0,0,0,0,0A3.67,3.67,0,0,1,24,7.31l.32.08-.57,0a3.22,3.22,0,0,0-2.63,1.13S21.15,8.55,21.18,8.53Z"/><path class="cls-10" d="M17.6,12.08a0,0,0,0,0,0,0A2,2,0,0,1,18,10s0,0,0,0A1.77,1.77,0,0,0,17.6,12.08Z"/><path class="cls-11" d="M35.94,31.48a8.53,8.53,0,0,0-3.31-1.87c-1.21-.43-2.48-.71-3.72-1-.62-.15-1.24-.32-1.83-.51a2.07,2.07,0,0,1-.75-.39c-.2-.16-.35-.4-.61-.42a4.27,4.27,0,0,1-1.22,2.38,4.88,4.88,0,0,1-2.46,1,5.76,5.76,0,0,1-3.57-.49,4.55,4.55,0,0,1-1.29-1.26,2.33,2.33,0,0,1-.37-.84c-.06-.26,0-.68-.12-.9A11,11,0,0,0,15,28c-.6.3-1.21.56-1.81.85-1.17.55-2.36,1.13-3.49,1.77A7,7,0,0,0,6.7,33,5.47,5.47,0,0,0,6.19,35l-.12.7a7.49,7.49,0,0,0,1.5.16l13.09,4.67,13.93-4.67a6.9,6.9,0,0,0,2.77-.58v-.2A5.44,5.44,0,0,0,35.94,31.48Z"/><path class="cls-12" d="M29.64,29c.63.32,1.27.66,1.9,1,.35.2.63.45,1,.67a12,12,0,0,1,1.15.68c.63.52,1.23,1.12,1.86,1.65a8.86,8.86,0,0,1,.82.8c.22.24.34.53.54.74a1.74,1.74,0,0,1,.1.19c.41-.28.07-1.39-.07-1.76a6,6,0,0,0-1.08-1.57A6.72,6.72,0,0,0,32.6,29.7a8.89,8.89,0,0,0-2-.7Z"/><path class="cls-12" d="M6.38,34.3c.15-1.44,1.57-2.73,2.77-3.39s2.59-1.44,3.91-2a9,9,0,0,1,2.13-.79c-.32,1.15-1.24,1.8-2.62,2.69-.83.53-2.74,1.34-3.58,1.85a14.64,14.64,0,0,0-1.71,1.42c-.24.2-.71.9-1,.87,0-.06,0-.25,0-.23Z"/><path class="cls-13" d="M28.18,28.43a1.55,1.55,0,0,0-1.31-.26.16.16,0,0,0-.2-.16l-.07,0-.1,0v0a.07.07,0,0,0,0-.06.34.34,0,0,0-.3-.39.18.18,0,0,0-.2.1v-.05a.13.13,0,1,0-.26-.07c-.06.14-.11.29-.17.43,0-.05,0-.1,0-.15a2.19,2.19,0,0,1-.11.4,2.29,2.29,0,0,1-.1.23A4.39,4.39,0,0,1,23.94,30a5.51,5.51,0,0,1-2.89.74,4.71,4.71,0,0,1-2.67-.61,4.46,4.46,0,0,1-.89-.79c-.3-.33-.41-.83-.69-1.12l-.16-.53c0-.07,0-.15,0-.22-.05-.23-.4-.13-.34.09v0a1,1,0,0,0-.2.16v0a.1.1,0,0,0-.2,0v0a.1.1,0,0,0-.09.09.88.88,0,0,0-.73.25,1.16,1.16,0,0,0-.41.36s0,.05,0,0a3.31,3.31,0,0,1,.61-.19,1.29,1.29,0,0,0,.44-.1l.08,0h.05a4.91,4.91,0,0,0,1,1.76c.15.18.33.38.52.57a3.85,3.85,0,0,0,1,1.27,4.21,4.21,0,0,0,4.27.56,5.53,5.53,0,0,0,1.4-1,8.9,8.9,0,0,0,1.24-1.11,5,5,0,0,0,.58-.84,4.59,4.59,0,0,0,.33-.52l.17-.21a1.54,1.54,0,0,1,.47-.22c.45-.13.84.14,1.27.1A.13.13,0,0,0,28.18,28.43ZM16.32,28l.08-.06a4.25,4.25,0,0,0,.27.46l0,.16a5.59,5.59,0,0,0,.08.59,5.93,5.93,0,0,1-.59-1Zm9.55,0,.25.1v0a.13.13,0,0,1,0,.06,2.7,2.7,0,0,0-.21.38,5.48,5.48,0,0,1-.66,1c0-.12.08-.24.11-.36A5,5,0,0,0,25.87,28Z"/><path class="cls-8" d="M21.65,17.82a2.82,2.82,0,0,0,.13-.76l.12-.27a1.71,1.71,0,0,0,.07-.18,1.13,1.13,0,0,1,.34-.2,2.73,2.73,0,0,1,.76-.09,5.4,5.4,0,0,1,1.38.19s0,0,0,0a1.94,1.94,0,0,0-.79-.36,2.21,2.21,0,0,0,.89-.28.92.92,0,0,0,.13-1.51,2.4,2.4,0,0,0-2.43,0,.19.19,0,0,0-.21-.1c-.54.12-.64.74-.67,1.22a6,6,0,0,0,.23,2.35Z"/><path class="cls-8" d="M18.62,16h0s0,0,0,.05a2.72,2.72,0,0,0-1.22.48s0,.05,0,0a6.8,6.8,0,0,1,2.43-.3l.09.07.07.11c.06.12.1.24.16.35a7.82,7.82,0,0,0,.14,1.26s0,0,0,0c.28-1.06.41-3.19-.82-3.77a.23.23,0,0,0-.28.09,2.71,2.71,0,0,0-.94-.25c-.57-.06-1.41,0-1.7.57s.41,1.15.92,1.29A2.42,2.42,0,0,0,18.62,16Z"/><path class="cls-8" d="M24.76,19.59c-.56-.36-1.3-.38-1.78-.85a2.37,2.37,0,0,0-.5-.45,0,0,0,0,0,0,0c.14.22.23.47.36.69a.94.94,0,0,0-.19.14,1.55,1.55,0,0,0-.48.32,2.25,2.25,0,0,1-1.93.37c-.29-.07-.75-.62-1.07-.65,0-.07.07-.14.1-.22h0a2.36,2.36,0,0,0,.32-.58s0-.05-.05,0a2.12,2.12,0,0,0-.65.65c-.15.2-.35.38-.49.59l-.3.21a2.58,2.58,0,0,0-.88.66c-.33.49.25,1,.61,1.23,0,0,0,0,0,0-.09-.22-.18-.44-.26-.66-.16-.43.4-.69.69-.88a3.12,3.12,0,0,0,.58-.5c.41-.41.69.26,1,.4a2.23,2.23,0,0,0,1,.25,2.64,2.64,0,0,0,1.07-.2c.41-.17.69-.51,1.12-.64l0,0,.14,0a.65.65,0,0,0,.27.05l.21.06.29.1a3.29,3.29,0,0,1,.68.33c.29.19.15.36.17.63a.14.14,0,0,0,.21.12C25.57,20.5,25.09,19.81,24.76,19.59Z"/><path class="cls-8" d="M24.21,20.08a5.17,5.17,0,0,0-1.21.33,12,12,0,0,1-2,.27,12.6,12.6,0,0,1-1.74.09,1.91,1.91,0,0,1-.89-.12.39.39,0,0,0-.35,0c-.21.05-.17.41.05.38a.6.6,0,0,1,.28.1.22.22,0,0,0,.1.14,6.61,6.61,0,0,0,1.35.51,3.49,3.49,0,0,0,1.6.24,3.08,3.08,0,0,0,.72-.15.27.27,0,0,1,0,.39,3.69,3.69,0,0,1-1.21.15A4.79,4.79,0,0,1,19.62,22s0,0,0,0l0,0a0,0,0,0,0-.06,0,1,1,0,0,0,.8.82,2.46,2.46,0,0,0,2.07,0,2.09,2.09,0,0,0,1.1-1.46l.11-.13a2.28,2.28,0,0,0,.39-.48l.38-.33A.21.21,0,0,0,24.21,20.08Z"/><path class="cls-3" d="M17.58,15.49a1.77,1.77,0,0,1,.93-.39,1.14,1.14,0,0,1,.92.25c.49.54-1.15.73-1.46.67s-.57-.1-.52-.37c0,0,0,0,0,0Z"/><path class="cls-3" d="M24.26,15.37c-.59-.3-1.3-.64-1.91-.18-.79.59.79.69,1.06.69s.79-.09.89-.37Z"/><path class="cls-3" d="M19.21,21.11a11.39,11.39,0,0,1,2.06-.19c.3,0,.65,0,1-.08l.94-.12h.07c-.25.49-1.19.83-1.67,1a2.68,2.68,0,0,1-1.95-.34.55.55,0,0,1-.17-.13Z"/><path class="cls-14" d="M22.74,15c-.35.38-.32.81.21.92.22,0,.52,0,.66-.14a.78.78,0,0,0,.05-.71L23.29,15Z"/><path class="cls-14" d="M18.08,15.21c-.38.37.05.82.53.8s.65-.45.52-.89a1.58,1.58,0,0,0-.75,0Z"/><path class="cls-3" d="M18.38,15.51c-.22-.15-.4.14-.2.32a.23.23,0,0,0,.29,0,.24.24,0,0,0,0-.23Z"/><path class="cls-3" d="M23.27,15.49a.34.34,0,0,1,.32-.21l.05.05c.1.3-.36.68-.41.29Z"/><path d="M13.26,14.75l.06-.09c0-.05,0-.09-.07-.07a.06.06,0,0,0-.11,0,1.17,1.17,0,0,0-.05.11,1.37,1.37,0,0,1-1.23.44s0,0,0,0A1.36,1.36,0,0,0,13,15c-.33.62-1,1.37-1.57.94,0,0-.07,0,0,.05C12.11,16.66,13.15,15.54,13.26,14.75Z"/><path d="M12.1,14.82a1.42,1.42,0,0,0,1.14-1.71,5.06,5.06,0,0,1,.12-.78A3.69,3.69,0,0,1,14,11.06s0,0,0,0a3.64,3.64,0,0,0-.68,1,2.54,2.54,0,0,0-.2,1.36,1.46,1.46,0,0,1-1,1.3S12.06,14.83,12.1,14.82Z"/><path d="M12.42,10.85a2,2,0,0,1,.76-.93,2.36,2.36,0,0,1,.36-.26,4.06,4.06,0,0,0-.83,3.56s0,0,0,0a4.84,4.84,0,0,1,.87-3.28,3.11,3.11,0,0,1,.48-.48l.21,0c.07,0,.11-.1,0-.14l-.06,0a.08.08,0,0,0-.07,0l-.08,0a1.6,1.6,0,0,0-.94.45,2,2,0,0,0-.79,1.16S12.42,10.87,12.42,10.85Z"/><path d="M12.66,9.83c.63-.69,1.12-1.39,2.12-1.52a.07.07,0,0,0,0-.14c-1.09-.07-1.55.91-2.15,1.63C12.62,9.82,12.64,9.85,12.66,9.83Z"/><path d="M13.92,8a3.43,3.43,0,0,1,3-.73c.1,0,.14-.11.06-.16-1-.71-2.3.15-3.06.85C13.87,8,13.9,8,13.92,8Z"/><path d="M13.4,8.1A3.62,3.62,0,0,1,17,8a.08.08,0,0,0,.1-.13c-1-1-2.71-.59-3.75.13A.06.06,0,0,0,13.4,8.1Z"/><path d="M17.28,7.62c0,.08.18.1.19,0A3.5,3.5,0,0,1,17.58,7a1.72,1.72,0,0,0,.53.63c.11.08.26-.07.19-.18a3.79,3.79,0,0,1-.56-.77c0-.09-.16-.15-.23-.06a1.06,1.06,0,0,0-.25.76,3.71,3.71,0,0,1-.32-.23s-.07,0,0,0A1.57,1.57,0,0,1,17.28,7.62Z"/><path d="M18.91,7.16A2.65,2.65,0,0,1,22,6.3a.1.1,0,0,0,.1-.17,2.46,2.46,0,0,0-3.3,1A.05.05,0,1,0,18.91,7.16Z"/><path d="M21.49,5.81a3.07,3.07,0,0,1,3.08.9s.05.08.07.13l0,.09a4.53,4.53,0,0,0-3.09.85h0a5.64,5.64,0,0,1,1.87-.7,3.44,3.44,0,0,1,2.16.35s0,0,0,0a3.85,3.85,0,0,1,1.54,2.23.08.08,0,0,1,0,0l0,.05a1.49,1.49,0,0,0-.4-.15,2.89,2.89,0,0,0-1.25-.21s0,0,0,0a3.44,3.44,0,0,1,.88.22,0,0,0,0,0,0,.05,4.6,4.6,0,0,1,1,.44l.06.05a.47.47,0,0,0,.11.13s0,0,0,0a3.52,3.52,0,0,1,.49.72s0,0,0,0a5.4,5.4,0,0,0-.4-.75,2.13,2.13,0,0,0-.34-.65,3.15,3.15,0,0,0-1.95-2.41c-.13-.1-.24-.22-.36-.33a2.31,2.31,0,0,0-.29-.24,2.7,2.7,0,0,0-3.28-.85S21.47,5.82,21.49,5.81Zm5.76,4v0h0Z"/>
<path d="M28.08,11.78a2.68,2.68,0,0,0-1-1.66s-.05,0,0,0A3.43,3.43,0,0,1,28,11.8C28,11.86,28.09,11.83,28.08,11.78Z"/>
<path d="M27.8,15.35c0,.08.14.1.16,0,.27-1.12.86-2.72-.3-3.52,0,0-.05,0,0,0a1.68,1.68,0,0,1,.52,1.48A1.9,1.9,0,0,0,28,13a1.49,1.49,0,0,0-.39-.57c-.22-.21-.49-.33-.7-.56,0,0,0,0,0,0a6.32,6.32,0,0,1,.85,1A2.57,2.57,0,0,1,28,14.32C27.92,14.67,27.84,15,27.8,15.35Z"/>
  <path d="M11.87,16.73a0,0,0,1,0,0,.07,1.8,1.8,0,0,0,2-.46c0-.05,0-.14-.08-.1C13.12,16.58,12.58,17,11.87,16.73Z"/>
  <path d="M14.35,16.42c-.38.43-1,1.1-1.62.73,0,0,0,0,0,0,.6.39,1.41-.16,1.7-.71A0,0,0,0,0,14.35,16.42Z"/>
  <path d="M14.64,17.25s0,0,0,0a2.46,2.46,0,0,1-1.87,1.07,0,0,0,0,0,0,.09A2.08,2.08,0,0,0,14.64,17.25Z"/>
  <path d="M19.34,13.78a2.57,2.57,0,0,0,1.12.44.06.06,0,0,0,0-.11,3.94,3.94,0,0,1-.83-.36.08.08,0,0,0,0,0l-.07,0a2.42,2.42,0,0,1-1.34-1.89,0,0,0,0,0-.05,0,2.22,2.22,0,0,0,.83,1.7,4.57,4.57,0,0,1-2.62-1.62h0A4.44,4.44,0,0,0,19.34,13.78Z"/>
  <path d="M18.5,11.56a0,0,0,0,0,0,0c0,1.16,1.7,1.66,2.61,1.86.06,0,.1-.07,0-.09C20.3,13,18.61,12.64,18.5,11.56Z"/>
  <path d="M19.27,11.8a2.63,2.63,0,0,0,1.42,1.07s.08-.07,0-.09a3.07,3.07,0,0,1-1.43-1S19.26,11.79,19.27,11.8Z"/>
  <path d="M23.37,13.26c.05,0,.09-.06,0-.09a4.22,4.22,0,0,1-2.14-1.78s0,0,0,0A3.54,3.54,0,0,0,23.37,13.26Z"/>
  <path d="M25.18,14.63a2.57,2.57,0,0,0-.82-2.4s-.11,0-.06.07c.72.67.65,1.44.75,2.33A.07.07,0,1,0,25.18,14.63Z"/>
  <path d="M25.53,13.85a3.13,3.13,0,0,0-.15-1.36s-.06,0-.05,0a5.47,5.47,0,0,1,.17,1.34Z"/>
  <path d="M36.52,31.72a6.44,6.44,0,0,0-2.89-2,26.82,26.82,0,0,0-3.94-1.22c-.73-.18-1.47-.35-2.19-.59a4.12,4.12,0,0,1-1.29-.61,3.46,3.46,0,0,1-.27-1.05c0-.59,0-1.19.08-1.79s.09-.95.12-1.44l.05,0a.52.52,0,0,0,.4.07,0,0,0,1,0,0-.09.42.42,0,0,1-.32-.11.64.64,0,0,1-.1-.13v-.11a1.83,1.83,0,0,0,1,.12,0,0,0,0,0,0,0,4.48,4.48,0,0,1-.63-.06.58.58,0,0,1-.39-.26,2.71,2.71,0,0,0,0-.29c0-.35,0-.71,0-1.06s0-.53,0-.79v0a.24.24,0,0,1,.08-.06.84.84,0,0,0,.71.44,1,1,0,0,0,1-.57s0,0,0,0a1,1,0,0,1-.83.47.68.68,0,0,1-.68-.39.76.76,0,0,0,.58-.23,2.07,2.07,0,0,0,.31-1.67c.05-.11.11-.23.06-.32a1,1,0,0,0,.53-.05.08.08,0,0,0,0-.12,2.44,2.44,0,0,0,.34.08c.12,0,.15-.19,0-.22a1.15,1.15,0,0,1-.91-1.08c.27.41.93.59,1.08,0,0,0,0,0,0,0-.23.66-1,.13-1.06-.36l0,0a3,3,0,0,1,0-.42c.08.3.36.58.67.49,0,0,0,0,0,0-.35,0-.55-.41-.59-.7a0,0,0,0,0-.06,0c0-.22,0-.44.06-.64,0,0,0,0,0,0-.14,1-.69,2.48.38,2.93h0a1,1,0,0,1-.85-.14,1.09,1.09,0,0,1-.3-.89s0,0,0,0a1.27,1.27,0,0,0,.24,1,.63.63,0,0,0,.3.21A6.2,6.2,0,0,1,27,19a1.44,1.44,0,0,1-.26.56c-.12.14-.44.21-.46,0a.3.3,0,0,0,0-.1,14.14,14.14,0,0,0,0-2.16,1.23,1.23,0,0,0,.54.57s0,0,0,0a1.4,1.4,0,0,1-.56-1.17,16.45,16.45,0,0,0,0-1.72,3.66,3.66,0,0,0-.31-2.43s0,0,0,0a2,2,0,0,0-.2-.31s0,0,0,0A2.93,2.93,0,0,1,26,13.94c0,.69-.17,1.37-.19,2.06s.06,1.37,0,2.06c0,.05,0,.11,0,.16,0,.3-.05.6-.07.91a9.69,9.69,0,0,1-.24,1.69c-.12.5-.33,1-.47,1.47a.36.36,0,0,1,0,.09,6.34,6.34,0,0,1-1.13,1.56,3.72,3.72,0,0,1-3.41,1.25,5.72,5.72,0,0,1-2.85-1.69l-.48-.5c-.17-.28-.36-.55-.56-.82L16.48,22a1.09,1.09,0,0,0-.08-.15,15.68,15.68,0,0,1-.61-2.26c-.07-.5-.13-1-.2-1.49a1,1,0,0,1,0-.17c0-.44,0-.88,0-1.32a4.38,4.38,0,0,0-.1-.79c0-.33,0-.67,0-1a11.63,11.63,0,0,1,.5-2.44s0,0,0,0a7.61,7.61,0,0,0-.73,4.17s0,0,0,0c0,.42,0,.85,0,1.27a.9.9,0,0,1-.78.81c-.06,0-.06.09,0,.09a1,1,0,0,0,.78-.47,12.11,12.11,0,0,0,.09,1.59,2,2,0,0,1,0,.26l0,0c-.1.09-.14.16-.27.09a1.42,1.42,0,0,1-.42-.46,4.44,4.44,0,0,1-.38-.67l-.06-.31s0,0,0,0h0a.13.13,0,0,0,0-.06s0-.08,0-.12a.77.77,0,0,0,.59-.51.07.07,0,0,0-.12-.07,1.17,1.17,0,0,1-1,.44c-.09,0-.1.14,0,.16a1,1,0,0,0,.35,0l0,.06.09.16,0,.05a4.88,4.88,0,0,0,.43,1.34,2.12,2.12,0,0,0,.12.2c-.29.41-1,.94-1.29.48,0,0,0,0,0,0,.26.56,1.1.09,1.42-.39a.6.6,0,0,0,.66.16c0,.13.09.26.13.38l.06.18c.07.46.21.9.25,1.36A1.47,1.47,0,0,1,14.5,24a0,0,0,0,0,0,.08,1.6,1.6,0,0,0,1.37-.94l0,.33a1,1,0,0,1-.64.58,0,0,0,0,0,0,.09,1.11,1.11,0,0,0,.65-.43l.06.35v0c0,.6.08,1.19.13,1.78,0,.28,0,.56.05.84a.51.51,0,0,1,0,.17s0,0,0,0-.18.23-.27.33l0,.06A61.18,61.18,0,0,0,9,30.62,5.66,5.66,0,0,0,5.9,35.16c0,.36.51.34.55,0C6.69,33,8.14,31.84,9.9,30.85c1.12-.63,2.26-1.22,3.42-1.76.85-.39,1.72-.73,2.57-1.11a4.69,4.69,0,0,0,2.91,3.08h0c-1.45-.39-2.27-1.82-2.82-3.11l.51-.24a4.47,4.47,0,0,0,.9,1.81,4.53,4.53,0,0,0,3.3,1.43c2.29.16,4.57-1,5.05-3.19a.1.1,0,0,0,.1-.09v-.08a1.88,1.88,0,0,0,.34.35,5.21,5.21,0,0,1-1.74,2.45,5.11,5.11,0,0,1-3,1.14s0,0,0,0a5.52,5.52,0,0,0,3.14-1,7,7,0,0,0,1.28-1.27,3,3,0,0,0,.66-1.11,6.88,6.88,0,0,0,1.43.54c1.31.41,2.65.68,3.95,1.08a10,10,0,0,1,3.6,1.77,4.11,4.11,0,0,1,1.12,1.66c.23.59.2,1.21.38,1.81a.24.24,0,0,0,.46,0C37.81,34,37.09,32.51,36.52,31.72ZM23.91,29.89a5.52,5.52,0,0,1-3.21.7,4.31,4.31,0,0,1-2.95-1.21,3.18,3.18,0,0,1-.57-.79.08.08,0,0,0,0-.08c-.17-.88-.31-1.81-.55-2.69,0-.54-.12-1.08-.18-1.6a4.68,4.68,0,0,0,0-1.24,9.37,9.37,0,0,0,.87,1,6.51,6.51,0,0,0,1.94,1.39,1.09,1.09,0,0,1,.07.24.19.19,0,0,0,0,.07.17.17,0,0,0,0,.07c-.8,1,.1,2.64.73,3.48,0,0,.06,0,0,0a3.66,3.66,0,0,1-.37-3.47.25.25,0,0,0,0-.08l.07-.06,0,0a3.94,3.94,0,0,0,.77.19c2,.29,3.9-1.21,4.87-3,0,.58,0,1.17,0,1.71a12.28,12.28,0,0,0,0,2.5A3.38,3.38,0,0,1,23.91,29.89Z"/><path d="M14.37,10.09h0a3.39,3.39,0,0,0-1.57,3.29c0,.06.1,0,.1,0a3.72,3.72,0,0,1,.34-1.83A5,5,0,0,1,14.37,10.09Z"/><path d="M13.53,13.45c0,.05.09.05.09,0a3,3,0,0,1,.75-2.2s0,0,0,0A2.74,2.74,0,0,0,13.53,13.45Z"/>
  <path d="M12.32,16.32a0,0,0,0,0,0,.06c1.37.06,1.91-1.7,2.13-2.74,0,0,0,0,0,0a7.67,7.67,0,0,1-.65,1.6A2.09,2.09,0,0,1,12.32,16.32Z"/>
  <path d="M14.58,14.23a7.21,7.21,0,0,1-1.17,1.91s0,.09.05.05a4.64,4.64,0,0,0,1.14-2S14.59,14.22,14.58,14.23Z"/>
<path d="M14.7,16.3a1.83,1.83,0,0,1-1.36,1.34h0a1.58,1.58,0,0,0,1.41-1.33C14.77,16.27,14.71,16.26,14.7,16.3Z"/>
<path d="M26.84,15.29c-.21.62-.2,2,.6,2.24a0,0,0,0,0,0-.05c-.68-.34-.79-1.53-.6-2.18C26.86,15.28,26.84,15.28,26.84,15.29Z"/>
<path d="M27.66,14.42a2.17,2.17,0,0,0-.24-1.35c-.28-.44-.74-.57-1.12-.87,0,0,0,0,0,0a6.25,6.25,0,0,1,.94.76,2.44,2.44,0,0,1,.37,1.45A0,0,0,1,0,27.66,14.42Z"/>
  <path d="M27.44,14.27c-.08-.57-.2-1.14-.77-1.39,0,0,0,0,0,0,.55.31.53.85.71,1.38C27.38,14.34,27.44,14.32,27.44,14.27Z"/>
  <path d="M26.53,13.71s0,0,0,0c.53.25.55,1.14.49,1.65,0,0,0,0,0,0C27.17,14.87,27.11,13.94,26.53,13.71Z"/>
  <path d="M15.9,10.72a0,0,0,1,0,0-.07A3.17,3.17,0,0,0,14.35,13s0,0,0,0A3.67,3.67,0,0,1,15.9,10.72Z"/>
  <path d="M27.1,11.31s.08,0,.06,0a2.81,2.81,0,0,0-1.65-1.15s0,0,0,0A4.47,4.47,0,0,1,27.1,11.31Z"/>
  <path d="M25.14,9.73a2,2,0,0,1,1.69.79s.06,0,0,0a1.76,1.76,0,0,0-1.73-.78S25.13,9.73,25.14,9.73Z"/>
  <path d="M26.18,8.22a2,2,0,0,0-2.75-.08s0,0,0,0a2,2,0,0,1,2.69.11S26.21,8.25,26.18,8.22Z"/>
  <path d="M23.94,8.22a0,0,0,1,0,0,0,2.85,2.85,0,0,1,1.78.09,0,0,0,0,0,0,0A2.35,2.35,0,0,0,23.94,8.22Z"/>
  <path d="M20.68,8.48a3.7,3.7,0,0,1,3.13-1.29c.07,0,.08-.09,0-.11a3.28,3.28,0,0,0-3.17,1.38S20.67,8.49,20.68,8.48Z"/>
  <path d="M21.55,8.22a4.09,4.09,0,0,1,3.84-.31.05.05,0,1,0,.05-.09,3.76,3.76,0,0,0-3.91.37S21.53,8.23,21.55,8.22Z"/>
  <path d="M15,7.86s0,0,0,0A2.11,2.11,0,0,1,17.15,8s.08,0,.05-.06A2,2,0,0,0,15,7.86Z"/>
  <path d="M17.14,8.07a2,2,0,0,0-2,.12s0,0,0,0a2.07,2.07,0,0,1,1.92-.06S17.18,8.1,17.14,8.07Z"/>
  <path d="M14.71,9.79s0,.06,0,0A2.68,2.68,0,0,1,17,9.1s0,0,0,0A2.48,2.48,0,0,0,14.71,9.79Z"/>
  <path d="M16.66,9.37a2.63,2.63,0,0,0-1.9.89s0,0,0,0a3.37,3.37,0,0,1,1.87-.86S16.7,9.37,16.66,9.37Z"/>
  <path d="M20.8,6.51c-.79.26-2.12,1.27-1.91,2.24,0,.05.08,0,.08,0a2.83,2.83,0,0,1,1.84-2.19A0,0,0,0,0,20.8,6.51Z"/>
  <path d="M19.22,7.52c.21-.41-.08-.89-.24-1.26,0,0,0,0,0,0a3.16,3.16,0,0,1,.21,1.25S19.21,7.55,19.22,7.52Z"/>
  <path d="M17.73,6.62s0,0,0,0a1.38,1.38,0,0,1,1.08,1s.06,0,.06,0C18.87,7.05,18.23,6.72,17.73,6.62Z"/>
  <path d="M17.35,10.36c-.86.87-.12,2,.64,2.59,0,0,0,0,0,0-.67-.63-1.4-1.72-.65-2.56C17.37,10.36,17.36,10.35,17.35,10.36Z"/>
  <path d="M21.62,10.68c-.24.94.71,1.64,1.49,1.93,0,0,.05,0,0-.06-.68-.4-1.63-.92-1.47-1.86C21.66,10.67,21.63,10.65,21.62,10.68Z"/>
  <path d="M16.39,10.83s0,0,0,0a2.88,2.88,0,0,0-1.22,2.73s.07,0,.06,0A3.23,3.23,0,0,1,16.39,10.83Z"/>
  <path d="M25.85,11.6c-.46-1.14-1.93-.81-2.73-1.52,0,0,0,0,0,0a2.59,2.59,0,0,0,1.24.61,2.14,2.14,0,0,1,1.46.92S25.86,11.62,25.85,11.6Z"/>
  <path d="M25.34,11.59a3.5,3.5,0,0,0-1.76-.82h0a5.5,5.5,0,0,1,1.74.84A0,0,0,1,0,25.34,11.59Z"/>
  <path d="M22.29,9.08a5.58,5.58,0,0,1,3-.07s.06,0,0-.06a4.51,4.51,0,0,0-3,.11S22.27,9.09,22.29,9.08Z"/>
  <path d="M19.87,19.33l-.13,0s0,.1,0,.09a.65.65,0,0,1,.31,0l.11.06c.14.09.26.21.41.3a1.14,1.14,0,0,0,.55.13,1,1,0,0,0,1-.58.52.52,0,0,1,.13-.06c.05,0,.11,0,.15-.07a.08.08,0,0,0,0-.1c-.15-.14-.34,0-.5.21a1.45,1.45,0,0,1-1.08.25,8.81,8.81,0,0,0-.91-.3Z"/>
  <path d="M19.35,19.49s.11,0,.08-.08a.92.92,0,0,1-.15-.43.89.89,0,0,1,.12-.45s0-.05,0,0C19.16,18.74,19,19.31,19.35,19.49Z"/>
  <path d="M22.6,19.34a.79.79,0,0,0-.12-1.16s0,0,0,0a1,1,0,0,1,.22.59,1.51,1.51,0,0,1-.17.49C22.49,19.34,22.56,19.37,22.6,19.34Z"/>
  <path d="M20.35,18h0a8.76,8.76,0,0,0-.09-2.4h0A13.73,13.73,0,0,1,20.35,18Z"/>
  <path d="M21.57,17.64c0-.7-.08-1.41-.11-2.12h0a13.62,13.62,0,0,0,.08,2.12A0,0,0,1,0,21.57,17.64Z"/>
  <path d="M14.76,20.94c0,.06,0,.13-.08.19-.45.2-1,.48-1.38.08-.05-.06-.13,0-.08.08a1.11,1.11,0,0,0,1.37,0,1,1,0,0,1-1.15.64s0,0,0,0a1.12,1.12,0,0,0,1.36-.79l0,0a0,0,0,0,0,0-.07.35.35,0,0,0,0-.14C14.85,20.9,14.77,20.9,14.76,20.94Z"/>
  <path d="M15.17,21.56v0a0,0,0,0,0,0,0v0l0,0a1.71,1.71,0,0,1-1.44.79s0,0,0,0a1.55,1.55,0,0,0,1.45-.63,2,2,0,0,1-.7,1.54s0,.08,0,.07c.64-.24.73-1.09.72-1.7a.05.05,0,0,0,0,0S15.19,21.57,15.17,21.56Z"/>
  <path d="M14.32,23.61s0,0,0,0a1.43,1.43,0,0,0,1.21-1.37s-.06-.05-.07,0A1.71,1.71,0,0,1,14.32,23.61Z"/>
  <path d="M27.83,20.78s0,0,0,0a1.47,1.47,0,0,1-1.45-.09h0l0,0s-.06,0-.06,0a1,1,0,0,0,.65.76.79.79,0,0,0,.93-.28s0,0,0,0a.81.81,0,0,1-.95.18,1,1,0,0,1-.46-.47A1.33,1.33,0,0,0,27.83,20.78Z"/>
  <path d="M27.59,21.91s0,0,0,0c-.43.31-.92,0-1.27-.25a0,0,0,0,0-.06,0l0,0s0,0,0,0a1.08,1.08,0,0,0,.77.79s0,0,0,0a1.26,1.26,0,0,1-.76-.72A1,1,0,0,0,27.59,21.91Z"/>
  <path d="M11.81,17.29c.17.69.8.72,1.4.56,0,0,0-.08,0-.08-.55.07-1.13.16-1.34-.5A0,0,0,1,0,11.81,17.29Z"/><path d="M19.27,16.23a3.66,3.66,0,0,0-1.61.21s0,0,0,0a8.71,8.71,0,0,1,1.61-.17S19.3,16.24,19.27,16.23Z"/>
  <path d="M24.23,16.4s0,0,0,0a1.72,1.72,0,0,0-.78-.14,3.45,3.45,0,0,0-1.06.07,0,0,0,0,0,0,0A5.58,5.58,0,0,1,24.23,16.4Z"/>
  <path d="M22.75,25.84c.05.4.13.79.14,1.19a7.53,7.53,0,0,1-.23,1.57s0,0,0,0a4,4,0,0,0,.21-2.8C22.87,25.74,22.74,25.77,22.75,25.84Z"/>
  <path d="M24.19,20.19c-.2.06-.35.22-.55.3a5.75,5.75,0,0,1-.71.2,12.11,12.11,0,0,1-1.71.22,11.33,11.33,0,0,1-2.47,0l-.28-.05-.31-.08c-.09,0-.12.1,0,.13a2.58,2.58,0,0,0,.76.16l.26.13c.2.11.41.2.62.3a2.8,2.8,0,0,0,1.4.32,3.2,3.2,0,0,0,1.21-.32,8.89,8.89,0,0,0,1.08-.73,4.32,4.32,0,0,0,.56-.3s0,0,0,0l.21-.08C24.35,20.33,24.3,20.15,24.19,20.19ZM21.07,21.7a4.41,4.41,0,0,1-.82-.16c-.23-.08-.45-.21-.68-.31l-.11,0,0,0v0s0,0,0,0v0h.18c.54,0,1.08-.06,1.61-.09a13.36,13.36,0,0,0,1.55-.17l.29-.06s0,0,0,.05c-.18.13-.35.29-.53.42A2.21,2.21,0,0,1,21.07,21.7Z"/>
  <path d="M22.89,21.89a2.22,2.22,0,0,1-1.58.6A3,3,0,0,1,19.57,22s0,0,0,0a2.34,2.34,0,0,0,1.75.66c.54,0,1.39-.17,1.64-.73C23,21.91,22.93,21.86,22.89,21.89Z"/>
<path d="M25,20.36s0,0,0,0c.21-1-1.29-.79-1.76-1.22h0a2,2,0,0,0,.92.44,1.94,1.94,0,0,1,.51.18A.63.63,0,0,1,25,20.36Z"/>
<path d="M17.55,20.39c.15-.11.32-.2.48-.31a1.61,1.61,0,0,0,.69-.7h0c-.28.51-.81.68-1.26,1a.48.48,0,0,0-.06.78s.1,0,.07,0C17.29,20.82,17.27,20.6,17.55,20.39Z"/>
  <path d="M16.7,14.6a4.13,4.13,0,0,1,1.81-.29A2.93,2.93,0,0,1,20,15c.09.06.18,0,.17-.13-.09-.61-1-.84-1.47-.91a2.29,2.29,0,0,0-2,.6S16.68,14.61,16.7,14.6Z"/>
  <path d="M24.55,14.3c0,.16,0,.32,0,.49a.06.06,0,0,0,.11,0c.51-1.44-1-2.74-2.09-3.28,0,0-.06,0,0,.05a4.57,4.57,0,0,1,1.48,1.25,2.37,2.37,0,0,1,.47,1.27,2.25,2.25,0,0,0-1.61-.26c-.58.1-1.35.4-1.47,1.06,0,0,0,.06.06,0a5.62,5.62,0,0,1,1.36-.75C23.47,14,24,14.32,24.55,14.3Z"/>
<path d="M19.66,15.51A1,1,0,0,0,18.55,15a1.92,1.92,0,0,0-1.24.69s0,0,0,0a2.36,2.36,0,0,1,.69-.4.39.39,0,0,0,0,.45.48.48,0,0,0,.4.22,1.47,1.47,0,0,1-.47,0,.89.89,0,0,0-.39-.09s0,0,0,0c.18,0,.31.11.47.13a3.65,3.65,0,0,0,.66,0,1.47,1.47,0,0,0,.87-.36s0-.06,0,0a2.92,2.92,0,0,1-.43.22.57.57,0,0,0,.16-.35.54.54,0,0,0,0-.18,1.56,1.56,0,0,1,.35.24S19.67,15.55,19.66,15.51Zm-.57-.24a.38.38,0,0,1,.06.23.58.58,0,0,1-.13.38,2.83,2.83,0,0,1-.44.12h0s0,0,0,0a.58.58,0,0,1-.51-.18.39.39,0,0,1,0-.46,2.68,2.68,0,0,1,.35-.1.3.3,0,0,0-.1.17.28.28,0,0,0,.27.35h.07a.25.25,0,0,0,.17-.08.34.34,0,0,0,.09-.14.3.3,0,0,0-.13-.33h0a.93.93,0,0,1,.29.05Z"/><path d="M24.44,15.46a1.71,1.71,0,0,0-1.21-.55,1.1,1.1,0,0,0-1.15.55s0,.07.05,0a1.07,1.07,0,0,1,.47-.34.53.53,0,0,0-.11.41.48.48,0,0,0,.13.23,2.25,2.25,0,0,1-.42-.13s0,0,0,0a2,2,0,0,0,2.13,0s0-.06,0,0a1.86,1.86,0,0,1-.7.23.77.77,0,0,0,.2-.39.41.41,0,0,0,0-.22c.22.08.43.18.62.27A0,0,0,0,0,24.44,15.46Zm-.8-.25a.33.33,0,0,1,0,.22.54.54,0,0,1-.19.42,2.91,2.91,0,0,1-.59,0,.42.42,0,0,1-.33-.3.54.54,0,0,1,.11-.42l.22,0a.42.42,0,0,0-.09.14.39.39,0,0,0,.1.34.3.3,0,0,0,.43,0,.27.27,0,0,0,.08-.16.25.25,0,0,0,0-.08.28.28,0,0,0,0-.09.54.54,0,0,0,0-.1l0,0,.25.05Z"/><path d="M22.12,15.06a1.13,1.13,0,0,1,.91-.35,2.44,2.44,0,0,1,1.2.39s0,0,0,0c-.53-.39-1.73-.79-2.15,0C22.1,15.07,22.11,15.07,22.12,15.06Z"/><path d="M17.38,15.3a1.87,1.87,0,0,1,2.11-.17s0,0,0,0c-.15-.34-.61-.39-.93-.34a2.47,2.47,0,0,0-1.22.52S17.37,15.31,17.38,15.3Z"/></g></g></g></svg>