<svg xmlns="http://www.w3.org/2000/svg" viewBox="-13002.391 -16783.699 32.981 33.6">
  <defs>
    <style>
      .cls-1 {
        fill: none;
        stroke: #29abe2;
        stroke-miterlimit: 10;
      }
    </style>
  </defs>
  <g id="Group_19911" data-name="Group 19911" transform="translate(-14590.1 -17090)">
    <circle id="Ellipse_365" data-name="Ellipse 365" class="cls-1" cx="10.7" cy="10.7" r="10.7" transform="translate(1593.5 318)"/>
    <path id="Path_5664" data-name="Path 5664" class="cls-1" d="M1604.2,322.5l2.2,4.5h3.9l-3.3,2.8,1.7,5.1-4.5-2.8-4.5,2.8,1.7-5.1L1598,327h3.9Z"/>
    <g id="Group_19909" data-name="Group 19909">
      <path id="Path_5665" data-name="Path 5665" class="cls-1" d="M1611.5,316.9l4.4-10.1h-3.3l-3.9,8.4"/>
      <path id="Path_5666" data-name="Path 5666" class="cls-1" d="M1614.3,318.6l5.6-11.8h-4l-4.4,10.1"/>
    </g>
    <g id="Group_19910" data-name="Group 19910">
      <path id="Path_5667" data-name="Path 5667" class="cls-1" d="M1596.9,316.9l-4.5-10.1h3.4l3.9,8.4"/>
      <path id="Path_5668" data-name="Path 5668" class="cls-1" d="M1594.1,318.6l-5.6-11.8h3.9l4.5,10.1"/>
    </g>
  </g>
</svg>
