<svg xmlns="http://www.w3.org/2000/svg" viewBox="-17464.9 -9744.6 23.102 31.8">
  <defs>
    <style>
      .cls-1 {
        fill: #808184;
      }

      .cls-2 {
        fill: none;
        stroke: #808184;
        stroke-miterlimit: 10;
        stroke-width: 0.75px;
      }
    </style>
  </defs>
  <g id="Group_34861" data-name="Group 34861" transform="translate(-19294.1 -9883)">
    <g id="Group_31179" data-name="Group 31179">
      <g id="Group_31178" data-name="Group 31178">
        <g id="Group_31177" data-name="Group 31177">
          <path id="Path_10887" data-name="Path 10887" class="cls-1" d="M1844.3,139.2l7.2,7.2v23.1H1830V139.2h14.3m.3-.8h-15.4v31.8h23V146.1l-7.6-7.7Z"/>
        </g>
        <path id="Path_10888" data-name="Path 10888" class="cls-2" d="M1844.6,138.4v7.7h7.7"/>
      </g>
    </g>
    <g id="Group_31183" data-name="Group 31183">
      <path id="Path_10891" data-name="Path 10891" class="cls-1" d="M1839.6,154.5l-3.6-5h-.9v-1.1h4.9v1.1h-1.3l2.6,3.5,2.7-3.5h-1.4v-1.1h3.5v1.1h-.9l-3.3,4.4,3.8,5.2h.9v1.1h-4.9v-1.1h1.3l-2.7-3.7-2.8,3.7h1.3v1.1h-3.6v-1.1h.9Z"/>
    </g>
  </g>
</svg>
