<svg xmlns="http://www.w3.org/2000/svg" viewBox="-9335.1 -21888.801 13.4 28.801">
  <path id="Path_2420" data-name="Path 2420" d="M1664,25.9a10.6,10.6,0,0,1,1.2-1l1.5-.9a4.779,4.779,0,0,1,1.8-.6,6.816,6.816,0,0,1,2.1-.2,7.456,7.456,0,0,1,2.6.4,7.76,7.76,0,0,1,2.2,1.2,7.007,7.007,0,0,1,1.5,1.9,5.338,5.338,0,0,1,.5,2.5,6.688,6.688,0,0,1-.5,2.6,6.151,6.151,0,0,1-1.2,1.9,11.371,11.371,0,0,1-1.6,1.5c-.6.4-1.1.8-1.6,1.2a14.966,14.966,0,0,0-1.3,1.1,3.378,3.378,0,0,0-.6,1.2l-.2,3.3h-1.3l-.1-3.4a2.41,2.41,0,0,1,.4-1.5,6.79,6.79,0,0,1,1.2-1.2c.5-.4,1-.8,1.6-1.2a10.7,10.7,0,0,0,1.6-1.4,6.568,6.568,0,0,0,1.2-1.7,5.555,5.555,0,0,0,.5-2.3,3.806,3.806,0,0,0-.4-1.9A5.256,5.256,0,0,0,1674,26a4.608,4.608,0,0,0-1.7-.9,6.448,6.448,0,0,0-2-.3,5.558,5.558,0,0,0-2.3.4,5.978,5.978,0,0,0-1.6.8,4.361,4.361,0,0,0-1,.8c-.3.2-.4.3-.5.3a.52.52,0,0,1-.4-.2Zm4.1,24.3a1.483,1.483,0,0,1,.1-.7,1.839,1.839,0,0,1,1-1,1.854,1.854,0,0,1,.7-.2,1.445,1.445,0,0,1,.7.2,1.839,1.839,0,0,1,1,1,1.7,1.7,0,0,1,.1.7,1.483,1.483,0,0,1-.1.7,1.839,1.839,0,0,1-1,1,1.7,1.7,0,0,1-.7.1,1.9,1.9,0,0,1-1.3-.5,1.536,1.536,0,0,1-.5-1.3" transform="translate(-10999.1 -21912)"/>
</svg>
