<svg xmlns="http://www.w3.org/2000/svg" viewBox="-20786.051 -22788.658 16.801 16.809">
  <defs>
    <style>
      .cls-1 {
        fill: none;
        stroke: #b3b3b3;
        stroke-linecap: round;
        stroke-linejoin: round;
        stroke-miterlimit: 10;
        stroke-width: 0.5px;
      }
    </style>
  </defs>
  <g id="Group_9055" data-name="Group 9055" transform="translate(-21001 -22859)">
    <path id="Path_4773" data-name="Path 4773" class="cls-1" d="M223.4,86.9h8.1a7.278,7.278,0,0,0-.7-2.9c-.5-1.1-2.6-1.7-5.5-2.7V79.2a3.1,3.1,0,0,0,.9-2.2c.4,0,.7-1.4,0-1.8,0-.2.9-2,.7-3.2-.4-1.8-5.3-1.8-5.7-.4-2.1,0-.7,3.2-.7,3.5-.7.4-.4,1.8,0,1.8a2.738,2.738,0,0,0,.9,2.1v2.2c-2.8,1.1-4.9,1.7-5.5,2.7a7.278,7.278,0,0,0-.7,2.9h8.2Z"/>
  </g>
</svg>
