<svg xmlns="http://www.w3.org/2000/svg" viewBox="-20784.75 -21526.75 14.301 17.4">
  <defs>
    <style>
      .cls-1 {
        fill: none;
        stroke: #b3b3b3;
        stroke-linecap: round;
        stroke-linejoin: round;
        stroke-miterlimit: 10;
        stroke-width: 0.5px;
      }
    </style>
  </defs>
  <g id="Group_9045" data-name="Group 9045" transform="translate(-21001 -21661)">
    <path id="Path_4762" data-name="Path 4762" class="cls-1" d="M225.5,146.7c2.8.3,4.8,1.2,4.8,2.3,0,1.3-3.1,2.4-6.9,2.4s-6.9-1.1-6.9-2.4c0-1.1,2-2,4.8-2.3"/>
    <g id="Group_9044" data-name="Group 9044">
      <path id="Path_4763" data-name="Path 4763" class="cls-1" d="M228.2,139.3c0,2.6-4.8,9.1-4.8,9.1s-4.8-6.4-4.8-9.1a4.8,4.8,0,1,1,9.6,0Z"/>
      <circle id="Ellipse_241" data-name="Ellipse 241" class="cls-1" cx="1.9" cy="1.9" r="1.9" transform="translate(221.5 137.4)"/>
    </g>
  </g>
</svg>
