<svg xmlns="http://www.w3.org/2000/svg" viewBox="0 0 23.898 34.207">
  <defs>
    <style>
      .cls-1 {
        fill: none;
        stroke: #29abe2;
        stroke-miterlimit: 10;
      }
    </style>
  </defs>
  <g id="Group_35389" data-name="Group 35389" transform="translate(-1467.451 -306.301)">
    <path id="Path_5658" data-name="Path 5658" class="cls-1" d="M1476.4,309a3.145,3.145,0,0,1,6,0v.1h.1a3.311,3.311,0,0,1,3.8-.1,2.991,2.991,0,0,1,1.1,3.5v.1h.1a3.064,3.064,0,0,1,1.9,5.6h0a2.909,2.909,0,0,1,1.2,3.5,3.039,3.039,0,0,1-3.1,2.1h-.1v.1a2.991,2.991,0,0,1-1.1,3.5,3.153,3.153,0,0,1-3.8-.1h-.1v.1a3.145,3.145,0,0,1-6,0v-.1h-.1a3.311,3.311,0,0,1-3.8.1,2.991,2.991,0,0,1-1.1-3.5v-.1h-.1a3.064,3.064,0,0,1-1.9-5.6h0a2.909,2.909,0,0,1-1.2-3.5,3.039,3.039,0,0,1,3.1-2.1h.1v-.1a2.991,2.991,0,0,1,1.1-3.5,3.468,3.468,0,0,1,3.9,0Z"/>
    <path id="Path_5659" data-name="Path 5659" class="cls-1" d="M1485.1,330.4v8.9l-5.6-5.6-5.6,5.6v-8.9"/>
    <path id="Path_5660" data-name="Path 5660" class="cls-1" d="M1479.5,311.9l2.2,3.9h4l-3.4,3.4,1.7,5-4.5-2.8-4.5,2.8,1.7-5-3.4-3.4h3.9Z"/>
  </g>
</svg>
