<svg xmlns="http://www.w3.org/2000/svg" viewBox="0 0 8.135 13.801">
  <defs>
    <style>
      .cls-1 {
        fill: none;
        stroke: #999;
        stroke-linecap: round;
        stroke-miterlimit: 10;
      }
    </style>
  </defs>
  <path id="Path_50860" data-name="Path 50860" class="cls-1" d="M1436,316.7l-6.9,6.4,6.9,6.4" transform="translate(-1428.365 -316.199)"/>
</svg>
