<svg xmlns="http://www.w3.org/2000/svg" viewBox="-20964.65 -21588.65 15.4 15.5">
  <defs>
    <style>
      .cls-1 {
        fill: none;
        stroke: #b3b3b3;
        stroke-linecap: round;
        stroke-linejoin: round;
        stroke-miterlimit: 10;
        stroke-width: 0.5px;
      }
    </style>
  </defs>
  <g id="Group_9040" data-name="Group 9040" transform="translate(-21001 -21693)">
    <path id="Path_4745" data-name="Path 4745" class="cls-1" d="M38.9,108.7v.9l-1.7.5a.838.838,0,0,0-.6.8v.3h3.9"/>
    <path id="Path_4746" data-name="Path 4746" class="cls-1" d="M40.7,108.8v.9l1.8.5a.875.875,0,0,1,.6.9v.3H39.8"/>
    <path id="Path_4747" data-name="Path 4747" class="cls-1" d="M41.8,106.8a2.009,2.009,0,1,1-2-2.2A2.12,2.12,0,0,1,41.8,106.8Z"/>
    <path id="Path_4748" data-name="Path 4748" class="cls-1" d="M41.8,106.4a1.109,1.109,0,0,1-1.6-.4,1.858,1.858,0,0,1-2.3.3"/>
    <path id="Path_4749" data-name="Path 4749" class="cls-1" d="M47.3,108.7v.9l-1.7.5a.838.838,0,0,0-.6.8v.3h3.9"/>
    <path id="Path_4750" data-name="Path 4750" class="cls-1" d="M49.1,108.8v.9l1.8.5a.875.875,0,0,1,.6.9v.3H48.2"/>
    <path id="Path_4751" data-name="Path 4751" class="cls-1" d="M50.2,106.8a2.009,2.009,0,1,1-2-2.2A2.12,2.12,0,0,1,50.2,106.8Z"/>
    <path id="Path_4752" data-name="Path 4752" class="cls-1" d="M50.2,106.4a1.109,1.109,0,0,1-1.6-.4,1.858,1.858,0,0,1-2.3.3"/>
    <path id="Path_4753" data-name="Path 4753" class="cls-1" d="M42.9,117.1v.9l-1.7.5a.838.838,0,0,0-.6.8v.3h3.6"/>
    <path id="Path_4754" data-name="Path 4754" class="cls-1" d="M44.9,117.1v.9l1.7.5a.838.838,0,0,1,.6.8v.3H43.6"/>
    <path id="Path_4755" data-name="Path 4755" class="cls-1" d="M45.9,115.2a2.009,2.009,0,1,1-2-2.2A2.12,2.12,0,0,1,45.9,115.2Z"/>
    <path id="Path_4756" data-name="Path 4756" class="cls-1" d="M45.8,114.8a1.16,1.16,0,0,1-1.6-.3,1.858,1.858,0,0,1-2.3.3"/>
    <line id="Line_1105" data-name="Line 1105" class="cls-1" x2="1.6" y2="1.7" transform="translate(38.6 112.3)"/>
    <line id="Line_1106" data-name="Line 1106" class="cls-1" x1="1.7" y2="1.7" transform="translate(47.5 112.3)"/>
  </g>
</svg>
