<svg xmlns="http://www.w3.org/2000/svg" viewBox="-20964.551 -22688.35 14.801 8.799">
  <defs>
    <style>
      .cls-1 {
        fill: none;
        stroke: #b3b3b3;
        stroke-linecap: round;
        stroke-linejoin: round;
        stroke-miterlimit: 10;
        stroke-width: 0.5px;
      }
    </style>
  </defs>
  <g id="Group_9056" data-name="Group 9056" transform="translate(-21001 -22859)">
    <path id="Path_4774" data-name="Path 4774" class="cls-1" d="M46.6,170.9H51v2.5"/>
    <path id="Path_4775" data-name="Path 4775" class="cls-1" d="M41.1,170.9H36.7v2.5"/>
    <path id="Path_4776" data-name="Path 4776" class="cls-1" d="M46.6,179.2H51v-2.7"/>
    <path id="Path_4777" data-name="Path 4777" class="cls-1" d="M41.1,179.2H36.7v-2.7"/>
    <rect id="Rectangle_5520" data-name="Rectangle 5520" class="cls-1" width="10.3" height="4.4" transform="translate(38.7 172.9)"/>
  </g>
</svg>
