<svg id="Group_34886" data-name="Group 34886" xmlns="http://www.w3.org/2000/svg" viewBox="-9420.6 -21890.6 36.8 36.1">
  <defs>
    <style>
      .cls-1 {
        fill: none;
        stroke: #000;
        stroke-linecap: round;
        stroke-linejoin: round;
        stroke-miterlimit: 10;
      }
    </style>
  </defs>
  <path id="Path_2421" data-name="Path 2421" class="cls-1" d="M1590.1,43.4a22.677,22.677,0,0,1-2.5-.6l-8,3.1,3.1-5.5a9.855,9.855,0,0,1-3.7-7.7c0-6,5.9-10.8,13.2-10.8s13.2,4.8,13.2,10.8" transform="translate(-10999.1 -21912)"/>
  <path id="Path_2422" data-name="Path 2422" class="cls-1" d="M1593,45.9c0,6.7,8,11.7,15,8.6l6.2,2.5-2.5-4.8a7.719,7.719,0,0,0,3.1-6.2c0-4.9-4.9-9.3-10.9-9.3C1597.9,36.6,1593,41,1593,45.9Z" transform="translate(-10999.1 -21912)"/>
</svg>
