<svg xmlns="http://www.w3.org/2000/svg" viewBox="-9118.899 -21878 19.5 10.5">
  <defs>
    <style>
      .cls-1 {
        fill: none;
        stroke: #000;
        stroke-linecap: round;
        stroke-linejoin: round;
        stroke-miterlimit: 10;
      }
    </style>
  </defs>
  <path id="Path_2424" data-name="Path 2424" class="cls-1" d="M1880.7,35.1l8.9,8.9,9.6-9.5" transform="translate(-10999.1 -21912)"/>
</svg>
