<svg id="Group_34884" data-name="Group 34884" xmlns="http://www.w3.org/2000/svg" viewBox="-10476.574 -21884.475 21.95 21.84">
  <defs>
    <style>
      .cls-1 {
        fill: none;
        stroke: #000;
        stroke-linejoin: round;
        stroke-miterlimit: 10;
        stroke-width: 0.75px;
      }
    </style>
  </defs>
  <rect id="Rectangle_2287" data-name="Rectangle 2287" class="cls-1" width="21.2" height="13.9" transform="translate(-10476.199 -21884.1)"/>
  <line id="Line_413" data-name="Line 413" class="cls-1" y2="2.9" transform="translate(-10465.6 -21870.199)"/>
  <path id="Path_2546" data-name="Path 2546" class="cls-1" d="M529.1,49.1l4.4-4.4,4.4,4.4" transform="translate(-10999.1 -21912)"/>
  <path id="Path_2547" data-name="Path 2547" class="cls-1" d="M525.1,35.2h3.3l2-2.1L532,37l2.6-2.5,1.8,1.8,3.3-4" transform="translate(-10999.1 -21912)"/>
  <rect id="Rectangle_2292" data-name="Rectangle 2292" class="cls-1" width="16.8" height="9.5" transform="translate(-10474 -21881.9)"/>
</svg>
