<svg xmlns="http://www.w3.org/2000/svg" viewBox="0 0 33.5 33.5">
  <defs>
    <style>
      .cls-1 {
        fill: none;
        stroke: #29abe2;
        stroke-linejoin: round;
        stroke-miterlimit: 10;
      }
    </style>
  </defs>
  <g id="Group_35390" data-name="Group 35390" transform="translate(-1525 -306.301)">
    <path id="Path_5661" data-name="Path 5661" class="cls-1" d="M1531.1,326l-5.6,9.4,5.6-1.1,1.7,5,5.2-7.4"/>
    <path id="Path_5662" data-name="Path 5662" class="cls-1" d="M1553.2,326.7l4.8,8.2-5.6-.6-1.7,5-4.5-7.3"/>
    <circle id="Ellipse_364" data-name="Ellipse 364" class="cls-1" cx="12.9" cy="12.9" r="12.9" transform="translate(1529.4 306.8)"/>
    <path id="Path_5663" data-name="Path 5663" class="cls-1" d="M1542.3,313.6l2.3,4.4h3.9l-3.4,2.8,1.7,5.1-4.5-2.8-4.4,2.8,1.6-5.1-3.3-2.8h3.9Z"/>
  </g>
</svg>
