<svg xmlns="http://www.w3.org/2000/svg" viewBox="0 0 59.7 54.1">
  <defs>
    <style>
      .cls-1 {
        fill: #29abe2;
      }

      .cls-2 {
        fill: none;
        stroke: #fff;
        stroke-miterlimit: 10;
      }
    </style>
  </defs>
  <g id="Group_35417" data-name="Group 35417" transform="translate(9299.699 18203)">
    <rect id="Rectangle_19903" data-name="Rectangle 19903" class="cls-1" width="59.7" height="54.1" transform="translate(-9299.699 -18203)"/>
    <g id="Group_35407" data-name="Group 35407" transform="translate(-10937.1 -18499)">
      <circle id="Ellipse_366" data-name="Ellipse 366" class="cls-2" cx="10.7" cy="10.7" r="10.7" transform="translate(1655.9 318)"/>
      <path id="Path_5669" data-name="Path 5669" class="cls-2" d="M1666.6,322.5l2.2,4.5h3.9l-3.3,2.8,1.7,5.1-4.5-2.8-4.5,2.8,1.7-5.1-3.4-2.8h3.9Z"/>
      <path id="Path_5670" data-name="Path 5670" class="cls-2" d="M1666.5,306.8h-6.7v3.4l1.2,6.7"/>
      <path id="Path_5671" data-name="Path 5671" class="cls-2" d="M1666.5,306.8h6.8v3.4l-1.1,6.7"/>
      <line id="Line_1358" data-name="Line 1358" class="cls-2" y2="8.4" transform="translate(1663.2 306.8)"/>
      <line id="Line_1359" data-name="Line 1359" class="cls-2" y2="8.4" transform="translate(1669.9 306.8)"/>
      <line id="Line_1360" data-name="Line 1360" class="cls-2" y2="8.5" transform="translate(1666.6 306.8)"/>
    </g>
  </g>
</svg>
