<svg id="Group_34887" data-name="Group 34887" xmlns="http://www.w3.org/2000/svg" viewBox="-10657.574 -21883.676 17.75 17.75">
  <defs>
    <style>
      .cls-1 {
        fill: none;
        stroke: #000;
        stroke-linejoin: round;
        stroke-miterlimit: 10;
        stroke-width: 0.75px;
      }
    </style>
  </defs>
  <g id="Group_34883" data-name="Group 34883">
    <line id="Line_411" data-name="Line 411" class="cls-1" y2="9.2" transform="translate(-10648.699 -21879.301)"/>
    <line id="Line_412" data-name="Line 412" class="cls-1" x1="9.2" transform="translate(-10653.399 -21874.699)"/>
    <rect id="Rectangle_2285" data-name="Rectangle 2285" class="cls-1" width="17" height="17" transform="translate(-10657.199 -21883.301)"/>
  </g>
</svg>
